…
We can use the vector to extract all these spectra as a collection, or
as show below, extract data for PAR sensors from Kipp.

``` r
sensors.mspct[intersect(kipp_sensors, par_sensors)]
#> Object: response_mspct [1 x 1]
#> --- Member: KIPP_PQS1 ---
#> Object: response_spct [202 x 2]
#> Wavelength range 391.431-717.608 nm, step 0.5010399-4.00832 nm 
#> Label: KIPP PQS1 light sensor 
#> Variables:
#>  w.length: Wavelength [nm]
#>  s.e.response: Spectral energy response [W-1 m2 nm] 
#> --
#> # A tibble: 202 × 2
#>    w.length s.e.response
#>       <dbl>        <dbl>
#>  1     391.       0.0245
#>  2     392.       0.0327
#>  3     392.       0.0410
#>  4     393.       0.0561
#>  5     394.       0.0650
#>  6     394.       0.0753
#>  7     395.       0.0960
#>  8     396.       0.119 
#>  9     397.       0.134 
#> 10     397.       0.153 
#> # ℹ 192 more rows
…
