User Guide: 1 Using the Data
…
We can use a character string as index to extract an individual
response_spct object.

sensors.mspct$LICOR_LI_190R

## Object: response_spct [214 x 2]
## Wavelength range 380.76093-797.90271 nm, step 0.5007704-4.006164 nm 
## Label: LICOR LI 190R light sensor 
## Sensor: LI from LICOR.
## Spct: data in s.e.response normalized to 1 at 661.7 nm (max in 381-798 nm)
## Variables:
##  w.length: Wavelength [nm]
##  s.e.response: Spectral energy response [normalized] 
## --
## # A tibble: 214 × 2
##    w.length s.e.response
##       <dbl>        <dbl>
##  1     381.      0.00164
##  2     381.      0.00194
##  3     382.      0.00224
##  4     383.      0.00284
##  5     385.      0.00405
##  6     386.      0.00653
##  7     387.      0.00775
##  8     387.      0.00853
##  9     388.      0.00899
## 10     388.      0.0110 
## # ℹ 204 more rows

sensors.mspct[["LICOR_LI_190R"]]

## Object: response_spct [214 x 2]
## Wavelength range 380.76093-797.90271 nm, step 0.5007704-4.006164 nm 
## Label: LICOR LI 190R light sensor 
## Sensor: LI from LICOR.
## Spct: data in s.e.response normalized to 1 at 661.7 nm (max in 381-798 nm)
## Variables:
##  w.length: Wavelength [nm]
##  s.e.response: Spectral energy response [normalized] 
## --
## # A tibble: 214 × 2
##    w.length s.e.response
##       <dbl>        <dbl>
##  1     381.      0.00164
##  2     381.      0.00194
##  3     382.      0.00224
##  4     383.      0.00284
##  5     385.      0.00405
##  6     386.      0.00653
##  7     387.      0.00775
##  8     387.      0.00853
##  9     388.      0.00899
## 10     388.      0.0110 
## # ℹ 204 more rows
…
sensors.mspct["LICOR_LI_190R"]

## Object: response_mspct [1 x 1]
## --- Member: LICOR_LI_190R ---
## Object: response_spct [214 x 2]
## Wavelength range 380.76093-797.90271 nm, step 0.5007704-4.006164 nm 
## Label: LICOR LI 190R light sensor 
## Sensor: LI from LICOR.
## Spct: data in s.e.response normalized to 1 at 661.7 nm (max in 381-798 nm)
## Variables:
##  w.length: Wavelength [nm]
##  s.e.response: Spectral energy response [normalized] 
## --
## # A tibble: 214 × 2
##    w.length s.e.response
##       <dbl>        <dbl>
##  1     381.      0.00164
##  2     381.      0.00194
##  3     382.      0.00224
##  4     383.      0.00284
##  5     385.      0.00405
##  6     386.      0.00653
##  7     387.      0.00775
##  8     387.      0.00853
##  9     388.      0.00899
## 10     388.      0.0110 
## # ℹ 204 more rows
## 
## --- END ---
…
sensors.mspct[berger_sensors]

## Object: response_mspct [1 x 1]
## --- Member: Berger_UV_Biometer ---
## Object: response_spct [21 x 2]
## Wavelength range 279.872-378.458 nm, step 3.311-5.284 nm 
## Label: Berger UV Biometer light sensor 
## Sensor: UV from Berger.
## Spct: data in s.e.response normalized to 1 at 290.2 nm (max in 280-378 nm)
## Variables:
##  w.length: Wavelength [nm]
##  s.e.response: Spectral energy response [normalized] 
## --
## # A tibble: 21 × 2
##    w.length s.e.response
##       <dbl>        <dbl>
##  1     280.      0.747  
##  2     285.      0.912  
##  3     290.      1      
##  4     295.      0.985  
##  5     300.      0.770  
##  6     305.      0.471  
##  7     310.      0.215  
##  8     315.      0.0782 
##  9     320.      0.0263 
## 10     325.      0.00845
## # ℹ 11 more rows
## 
## --- END ---
…
sensors.mspct[grep("berger", names(sensors.mspct), ignore.case = TRUE)]

## Object: response_mspct [1 x 1]
## --- Member: Berger_UV_Biometer ---
## Object: response_spct [21 x 2]
## Wavelength range 279.872-378.458 nm, step 3.311-5.284 nm 
## Label: Berger UV Biometer light sensor 
## Sensor: UV from Berger.
## Spct: data in s.e.response normalized to 1 at 290.2 nm (max in 280-378 nm)
## Variables:
##  w.length: Wavelength [nm]
##  s.e.response: Spectral energy response [normalized] 
## --
## # A tibble: 21 × 2
##    w.length s.e.response
##       <dbl>        <dbl>
##  1     280.      0.747  
##  2     285.      0.912  
##  3     290.      1      
##  4     295.      0.985  
##  5     300.      0.770  
##  6     305.      0.471  
##  7     310.      0.215  
##  8     315.      0.0782 
##  9     320.      0.0263 
## 10     325.      0.00845
## # ℹ 11 more rows
## 
## --- END ---
…
sensors.mspct[intersect(licor_sensors, par_sensors)]

## Object: response_mspct [1 x 1]
## --- Member: LICOR_LI_190 ---
## Object: response_spct [287 x 2]
## Wavelength range 381.85375-798.83668 nm, step 0.5005798-4.004638 nm 
## Label: LICOR LI 190 light sensor 
## Sensor: LI from LICOR.
## Spct: data in s.e.response normalized to 1 at 676.9 nm (max in 382-799 nm)
## Variables:
##  w.length: Wavelength [nm]
##  s.e.response: Spectral energy response [normalized] 
## --
## # A tibble: 287 × 2
##    w.length s.e.response
##       <dbl>        <dbl>
##  1     382.       0.0272
##  2     382.       0.0291
##  3     383.       0.0310
##  4     384.       0.0349
##  5     386.       0.0425
##  6     389.       0.0559
##  7     389.       0.0590
##  8     390.       0.0613
##  9     390.       0.0650
## 10     391.       0.0689
## # ℹ 277 more rows
## 
## --- END ---
…
